{
   "today":"2018-05-07",
   "period_start":"2018-04-10",
   "employees":[
      {
         "workload":{
            "workload_in_minutes":300,
            "minimum_rest_interval_in_minutes":15,
            "days":[
               "mon",
               "tue",
               "wed",
               "thu",
               "fri"
            ]
         },
         "pis_number":"59417640765",
         "name":"Goddard Lewis Son",
         "entries":[
            "2018-04-10T05:43:00",
            "2018-04-10T09:28:00",
            "2018-04-10T09:46:00",
            "2018-04-10T11:05:00",
            "2018-04-12T02:26:00",
            "2018-04-12T05:42:00",
            "2018-04-12T05:56:00",
            "2018-04-12T07:42:00",
            "2018-04-13T09:43:00",
            "2018-04-13T10:30:00",
            "2018-04-16T08:06:00",
            "2018-04-16T09:59:00",
            "2018-04-16T10:10:00",
            "2018-04-16T13:22:00",
            "2018-04-17T03:27:00",
            "2018-04-17T05:50:00",
            "2018-04-17T07:50:00",
            "2018-04-18T09:28:00",
            "2018-04-18T12:22:00",
            "2018-04-18T12:38:00",
            "2018-04-18T14:44:00",
            "2018-04-19T02:57:00",
            "2018-04-19T06:13:00",
            "2018-04-19T06:32:00",
            "2018-04-20T16:47:00",
            "2018-04-20T20:28:00",
            "2018-04-20T20:38:00",
            "2018-04-20T21:51:00",
            "2018-04-23T12:02:00",
            "2018-04-23T14:11:00",
            "2018-04-23T17:17:00",
            "2018-04-24T11:27:00",
            "2018-04-24T14:12:00",
            "2018-04-24T14:29:00",
            "2018-04-25T03:42:00",
            "2018-04-25T06:26:00",
            "2018-04-25T06:37:00",
            "2018-04-25T08:57:00",
            "2018-04-26T07:52:00",
            "2018-04-26T12:28:00",
            "2018-04-27T04:12:00",
            "2018-04-27T08:17:00",
            "2018-04-27T08:34:00",
            "2018-04-27T09:43:00",
            "2018-04-30T07:55:00",
            "2018-04-30T11:30:00",
            "2018-04-30T11:42:00",
            "2018-05-01T12:24:00",
            "2018-04-17T06:12:00",
            "2018-05-01T14:23:00",
            "2018-05-03T15:12:00",
            "2018-05-03T18:07:00",
            "2018-05-03T18:27:00",
            "2018-05-03T20:44:00",
            "2018-05-04T07:17:00",
            "2018-05-04T09:47:00",
            "2018-05-04T10:00:00",
            "2018-05-04T12:42:00",
            "2018-05-01T12:08:00",
            "2018-05-01T09:02:00",
            "2018-04-30T13:05:00",
            "2018-04-23T14:25:00",
            "2018-04-19T08:17:00",
            "2018-04-24T16:49:00"
         ]
      },
      {
         "workload":{
            "workload_in_minutes":240,
            "minimum_rest_interval_in_minutes":0,
            "days":[
               "mon",
               "tue",
               "wed",
               "thu",
               "fri",
               "sat"
            ]
         },
         "pis_number":"27187336689",
         "name":"Heath Black-Phelps",
         "entries":[
            "2018-04-10T14:16:00",
            "2018-04-10T18:05:00",
            "2018-04-11T18:30:00",
            "2018-04-11T21:27:00",
            "2018-04-11T21:31:00",
            "2018-04-11T22:27:00",
            "2018-04-12T19:21:00",
            "2018-04-12T23:25:00",
            "2018-04-13T15:08:00",
            "2018-04-13T19:03:00",
            "2018-04-14T03:00:00",
            "2018-04-14T06:51:00",
            "2018-04-16T10:00:00",
            "2018-04-16T13:15:00",
            "2018-04-16T13:16:00",
            "2018-04-16T14:11:00",
            "2018-04-17T03:52:00",
            "2018-04-17T07:57:00",
            "2018-04-18T04:32:00",
            "2018-04-18T07:17:00",
            "2018-04-18T07:20:00",
            "2018-04-18T08:45:00",
            "2018-04-19T08:48:00",
            "2018-04-19T09:19:00",
            "2018-04-20T00:58:00",
            "2018-04-20T01:28:00",
            "2018-04-21T06:29:00",
            "2018-04-21T09:29:00",
            "2018-04-21T09:33:00",
            "2018-04-21T10:30:00",
            "2018-04-23T18:41:00",
            "2018-04-23T22:48:00",
            "2018-04-24T19:05:00",
            "2018-04-24T22:53:00",
            "2018-04-25T15:46:00",
            "2018-04-25T18:26:00",
            "2018-04-25T18:27:00",
            "2018-04-25T19:49:00",
            "2018-04-26T13:06:00",
            "2018-04-26T14:38:00",
            "2018-04-26T14:37:00",
            "2018-04-26T15:42:00",
            "2018-04-26T16:01:00",
            "2018-04-26T16:48:00",
            "2018-04-27T08:13:00",
            "2018-04-27T12:01:00",
            "2018-04-28T17:00:00",
            "2018-04-28T19:20:00",
            "2018-04-28T19:24:00",
            "2018-04-28T21:01:00",
            "2018-04-30T16:35:00",
            "2018-04-30T19:24:00",
            "2018-04-30T19:29:00",
            "2018-04-30T20:41:00",
            "2018-05-02T15:33:00",
            "2018-05-02T16:56:00",
            "2018-05-02T16:59:00",
            "2018-05-02T19:28:00",
            "2018-05-03T01:42:00",
            "2018-05-03T05:42:00",
            "2018-05-05T16:15:00",
            "2018-05-05T17:10:00",
            "2018-05-05T17:06:00",
            "2018-05-05T17:59:00",
            "2018-05-05T18:13:00",
            "2018-05-05T18:40:00"
         ]
      },
      {
         "workload":{
            "workload_in_minutes":360,
            "minimum_rest_interval_in_minutes":15,
            "days":[
               "mon",
               "tue",
               "wed",
               "thu",
               "fri"
            ]
         },
         "pis_number":"15622197990",
         "name":"Kirsten Huxley Dick",
         "entries":[
            "2018-04-10T02:13:00",
            "2018-04-11T11:42:00",
            "2018-04-11T16:27:00",
            "2018-04-11T16:41:00",
            "2018-04-11T18:11:00",
            "2018-04-12T03:48:00",
            "2018-04-10T06:11:00",
            "2018-04-12T07:44:00",
            "2018-04-12T07:56:00",
            "2018-04-17T12:23:00",
            "2018-04-17T15:48:00",
            "2018-04-17T15:58:00",
            "2018-04-17T18:46:00",
            "2018-04-18T14:00:00",
            "2018-04-12T10:03:00",
            "2018-04-18T14:19:00",
            "2018-04-18T18:21:00",
            "2018-04-19T16:56:00",
            "2018-04-19T20:44:00",
            "2018-04-19T21:00:00",
            "2018-04-18T11:55:00",
            "2018-04-19T23:20:00",
            "2018-04-20T05:06:00",
            "2018-04-20T05:25:00",
            "2018-04-20T01:30:00",
            "2018-04-20T07:37:00",
            "2018-04-23T12:32:00",
            "2018-04-23T16:22:00",
            "2018-04-23T16:35:00",
            "2018-04-23T18:39:00",
            "2018-04-24T15:21:00",
            "2018-04-24T19:47:00",
            "2018-04-25T11:03:00",
            "2018-04-25T13:45:00",
            "2018-04-25T13:58:00",
            "2018-04-26T14:13:00",
            "2018-04-26T17:26:00",
            "2018-04-26T20:11:00",
            "2018-04-30T09:29:00",
            "2018-04-30T11:55:00",
            "2018-04-30T12:14:00",
            "2018-04-30T15:36:00",
            "2018-05-01T00:20:00",
            "2018-05-01T04:22:00",
            "2018-05-01T04:36:00",
            "2018-05-01T06:41:00",
            "2018-05-02T16:51:00",
            "2018-05-02T19:37:00",
            "2018-05-02T19:47:00",
            "2018-05-02T22:55:00",
            "2018-05-03T04:38:00",
            "2018-05-03T07:19:00",
            "2018-04-25T17:16:00",
            "2018-05-03T07:38:00",
            "2018-05-03T11:04:00",
            "2018-04-26T17:39:00",
            "2018-04-24T21:42:00",
            "2018-04-24T19:36:00"
         ]
      },
      {
         "workload":{
            "workload_in_minutes":360,
            "minimum_rest_interval_in_minutes":30,
            "days":[
               "mon",
               "tue",
               "wed",
               "thu",
               "fri"
            ]
         },
         "pis_number":"96372214449",
         "name":"Oswald Abbey-Hopkins",
         "entries":[
            "2018-04-10T15:44:00",
            "2018-04-10T18:09:00",
            "2018-04-10T18:36:00",
            "2018-04-10T22:23:00",
            "2018-04-13T11:02:00",
            "2018-04-13T15:47:00",
            "2018-04-13T16:25:00",
            "2018-04-13T17:55:00",
            "2018-04-15T11:45:00",
            "2018-04-15T12:16:00",
            "2018-04-15T12:19:00",
            "2018-04-15T12:36:00",
            "2018-04-16T10:13:00",
            "2018-04-16T14:20:00",
            "2018-04-16T14:55:00",
            "2018-04-16T16:45:00",
            "2018-04-17T05:19:00",
            "2018-04-17T09:21:00",
            "2018-04-17T09:46:00",
            "2018-04-17T11:30:00",
            "2018-04-18T03:46:00",
            "2018-04-18T07:33:00",
            "2018-04-18T08:06:00",
            "2018-04-18T10:25:00",
            "2018-04-19T13:48:00",
            "2018-04-19T17:45:00",
            "2018-04-19T18:15:00",
            "2018-04-19T20:12:00",
            "2018-04-20T10:37:00",
            "2018-04-20T15:19:00",
            "2018-04-20T15:47:00",
            "2018-04-20T17:02:00",
            "2018-04-23T02:31:00",
            "2018-04-23T05:58:00",
            "2018-04-23T06:32:00",
            "2018-04-23T09:14:00",
            "2018-04-25T09:55:00",
            "2018-04-25T11:40:00",
            "2018-04-25T12:14:00",
            "2018-04-25T16:21:00",
            "2018-04-26T06:42:00",
            "2018-04-26T11:45:00",
            "2018-04-27T06:21:00",
            "2018-04-27T10:44:00",
            "2018-04-27T11:12:00",
            "2018-04-27T12:44:00",
            "2018-04-30T13:23:00",
            "2018-04-30T16:36:00",
            "2018-04-30T17:05:00",
            "2018-04-30T19:36:00",
            "2018-05-01T18:18:00",
            "2018-05-01T20:14:00",
            "2018-05-01T20:47:00",
            "2018-05-02T00:44:00",
            "2018-05-02T00:37:00",
            "2018-05-02T04:42:00",
            "2018-05-03T02:29:00",
            "2018-05-03T06:41:00",
            "2018-05-03T07:12:00",
            "2018-05-03T09:00:00",
            "2018-05-04T07:26:00",
            "2018-05-04T11:34:00",
            "2018-05-04T11:12:00",
            "2018-05-04T13:08:00"
         ]
      },
      {
         "workload":{
            "workload_in_minutes":270,
            "minimum_rest_interval_in_minutes":0,
            "days":[
               "mon",
               "tue",
               "wed",
               "thu",
               "fri",
               "sat"
            ]
         },
         "pis_number":"62249532077",
         "name":"Laurence Moore",
         "entries":[
            "2018-04-11T02:56:00",
            "2018-04-11T03:26:00",
            "2018-04-12T12:38:00",
            "2018-04-12T17:12:00",
            "2018-04-13T16:13:00",
            "2018-04-13T20:29:00",
            "2018-04-14T10:55:00",
            "2018-04-14T12:29:00",
            "2018-04-14T12:33:00",
            "2018-04-14T15:20:00",
            "2018-04-16T08:03:00",
            "2018-04-16T09:44:00",
            "2018-04-16T10:11:00",
            "2018-04-16T12:56:00",
            "2018-04-17T03:54:00",
            "2018-04-17T08:26:00",
            "2018-04-18T10:48:00",
            "2018-04-18T12:32:00",
            "2018-04-18T12:33:00",
            "2018-04-18T15:03:00",
            "2018-04-19T05:08:00",
            "2018-04-19T08:17:00",
            "2018-04-20T06:34:00",
            "2018-04-20T10:39:00",
            "2018-04-21T19:12:00",
            "2018-04-21T23:49:00",
            "2018-04-22T09:02:00",
            "2018-04-22T09:32:00",
            "2018-04-23T14:53:00",
            "2018-04-23T16:37:00",
            "2018-04-23T16:38:00",
            "2018-04-23T19:36:00",
            "2018-04-24T18:48:00",
            "2018-04-24T21:15:00",
            "2018-04-24T21:20:00",
            "2018-04-24T23:25:00",
            "2018-04-25T14:42:00",
            "2018-04-25T19:08:00",
            "2018-04-26T12:16:00",
            "2018-04-26T16:35:00",
            "2018-04-27T05:44:00",
            "2018-04-27T10:21:00",
            "2018-04-28T19:59:00",
            "2018-04-28T23:24:00",
            "2018-04-28T23:25:00",
            "2018-04-29T00:30:00",
            "2018-04-30T11:06:00",
            "2018-04-30T15:35:00",
            "2018-05-01T07:19:00",
            "2018-05-01T07:49:00",
            "2018-05-02T15:52:00",
            "2018-05-02T20:20:00",
            "2018-05-03T05:56:00",
            "2018-05-03T10:30:00",
            "2018-05-04T19:38:00",
            "2018-05-05T00:08:00",
            "2018-05-05T13:39:00",
            "2018-05-05T15:00:00",
            "2018-05-05T15:03:00",
            "2018-05-05T18:04:00"
         ]
      },
      {
         "workload":{
            "workload_in_minutes":360,
            "minimum_rest_interval_in_minutes":15,
            "days":[
               "mon",
               "tue",
               "wed",
               "thu",
               "fri"
            ]
         },
         "pis_number":"36917415044",
         "name":"Felicia New-Halley",
         "entries":[
            "2018-04-10T10:38:00",
            "2018-04-10T14:50:00",
            "2018-04-10T15:01:00",
            "2018-04-10T16:43:00",
            "2018-04-11T15:41:00",
            "2018-04-11T19:13:00",
            "2018-04-11T18:57:00",
            "2018-04-11T21:25:00",
            "2018-04-12T11:23:00",
            "2018-04-12T14:44:00",
            "2018-04-12T15:01:00",
            "2018-04-12T17:26:00",
            "2018-04-13T15:50:00",
            "2018-04-13T19:49:00",
            "2018-04-13T20:00:00",
            "2018-04-13T22:03:00",
            "2018-04-16T07:52:00",
            "2018-04-16T10:42:00",
            "2018-04-16T10:54:00",
            "2018-04-16T14:06:00",
            "2018-04-17T14:35:00",
            "2018-04-17T17:23:00",
            "2018-04-17T17:38:00",
            "2018-04-17T20:55:00",
            "2018-04-18T04:42:00",
            "2018-04-18T08:37:00",
            "2018-04-18T08:41:00",
            "2018-04-18T09:11:00",
            "2018-04-18T09:26:00",
            "2018-04-18T09:54:00",
            "2018-04-19T00:25:00",
            "2018-04-19T04:54:00",
            "2018-04-20T02:07:00",
            "2018-04-20T05:43:00",
            "2018-04-20T05:53:00",
            "2018-04-20T08:23:00",
            "2018-04-23T05:41:00",
            "2018-04-23T09:13:00",
            "2018-04-23T09:24:00",
            "2018-04-23T11:52:00",
            "2018-04-24T04:41:00",
            "2018-04-24T08:35:00",
            "2018-04-24T08:50:00",
            "2018-04-24T11:02:00",
            "2018-04-25T05:29:00",
            "2018-04-25T08:21:00",
            "2018-04-25T08:36:00",
            "2018-04-25T11:28:00",
            "2018-04-26T09:24:00",
            "2018-04-26T11:18:00",
            "2018-04-26T11:38:00",
            "2018-04-26T15:40:00",
            "2018-04-27T16:48:00",
            "2018-04-27T19:27:00",
            "2018-04-27T19:38:00",
            "2018-04-27T23:09:00",
            "2018-05-01T08:08:00",
            "2018-05-01T10:44:00",
            "2018-05-01T10:56:00",
            "2018-05-01T14:32:00",
            "2018-05-02T05:21:00",
            "2018-05-02T09:52:00",
            "2018-05-02T10:09:00",
            "2018-05-02T11:34:00",
            "2018-05-03T17:04:00",
            "2018-05-03T21:39:00",
            "2018-05-03T21:50:00",
            "2018-05-03T23:12:00",
            "2018-05-04T11:54:00",
            "2018-05-04T16:39:00",
            "2018-05-04T16:59:00",
            "2018-05-04T18:29:00"
         ]
      },
      {
         "workload":{
            "workload_in_minutes":240,
            "minimum_rest_interval_in_minutes":15,
            "days":[
               "mon",
               "tue",
               "wed",
               "thu",
               "fri",
               "sat"
            ]
         },
         "pis_number":"61194745335",
         "name":"Lisa Moore Austen",
         "entries":[
            "2018-04-10T00:13:00",
            "2018-04-10T02:42:00",
            "2018-04-10T02:56:00",
            "2018-04-10T04:31:00",
            "2018-04-11T20:33:00",
            "2018-04-11T21:39:00",
            "2018-04-12T12:52:00",
            "2018-04-12T14:38:00",
            "2018-04-12T14:48:00",
            "2018-04-12T16:57:00",
            "2018-04-13T11:17:00",
            "2018-04-13T13:08:00",
            "2018-04-13T13:21:00",
            "2018-04-13T15:42:00",
            "2018-04-14T12:47:00",
            "2018-04-14T14:33:00",
            "2018-04-14T14:48:00",
            "2018-04-14T17:08:00",
            "2018-04-16T13:56:00",
            "2018-04-16T15:14:00",
            "2018-04-16T15:29:00",
            "2018-04-16T18:08:00",
            "2018-04-17T10:32:00",
            "2018-04-17T13:05:00",
            "2018-04-17T13:17:00",
            "2018-04-17T14:35:00",
            "2018-04-18T06:12:00",
            "2018-04-18T07:35:00",
            "2018-04-18T07:50:00",
            "2018-04-18T10:40:00",
            "2018-04-19T16:49:00",
            "2018-04-19T19:33:00",
            "2018-04-19T19:48:00",
            "2018-04-19T20:55:00",
            "2018-04-20T08:53:00",
            "2018-04-20T11:16:00",
            "2018-04-20T11:01:00",
            "2018-04-20T12:24:00",
            "2018-04-21T02:04:00",
            "2018-04-21T04:52:00",
            "2018-04-21T05:07:00",
            "2018-04-21T06:09:00",
            "2018-04-22T05:36:00",
            "2018-04-22T06:26:00",
            "2018-04-23T04:08:00",
            "2018-04-23T06:29:00",
            "2018-04-23T06:49:00",
            "2018-04-23T08:35:00",
            "2018-04-24T04:48:00",
            "2018-04-24T06:13:00",
            "2018-04-24T06:33:00",
            "2018-04-24T08:58:00",
            "2018-04-25T11:32:00",
            "2018-04-25T14:28:00",
            "2018-04-26T16:53:00",
            "2018-04-26T18:24:00",
            "2018-04-26T18:44:00",
            "2018-04-26T21:06:00",
            "2018-04-27T05:52:00",
            "2018-04-27T08:44:00",
            "2018-04-27T08:59:00",
            "2018-04-27T09:59:00",
            "2018-04-28T08:42:00",
            "2018-04-28T11:36:00",
            "2018-04-30T08:30:00",
            "2018-04-30T10:01:00",
            "2018-04-30T10:21:00",
            "2018-04-30T12:38:00",
            "2018-05-01T19:45:00",
            "2018-05-01T21:10:00",
            "2018-05-01T21:29:00",
            "2018-05-01T23:48:00",
            "2018-05-02T15:58:00",
            "2018-05-02T19:04:00",
            "2018-05-02T19:14:00",
            "2018-05-02T20:09:00",
            "2018-05-03T18:00:00",
            "2018-05-03T19:38:00",
            "2018-05-03T19:52:00",
            "2018-05-03T20:11:00",
            "2018-05-03T20:30:00",
            "2018-05-03T20:41:00",
            "2018-05-04T03:11:00",
            "2018-05-04T05:40:00",
            "2018-05-04T05:59:00",
            "2018-05-04T07:16:00",
            "2018-05-05T10:14:00",
            "2018-05-05T11:47:00",
            "2018-05-05T12:07:00",
            "2018-05-05T14:22:00"
         ]
      },
      {
         "workload":{
            "workload_in_minutes":240,
            "minimum_rest_interval_in_minutes":15,
            "days":[
               "mon",
               "tue",
               "wed",
               "thu",
               "fri",
               "sat"
            ]
         },
         "pis_number":"47633919795",
         "name":"Harley Haskell-Shoemaker",
         "entries":[
            "2018-04-10T04:06:00",
            "2018-04-10T06:18:00",
            "2018-04-10T06:37:00",
            "2018-04-10T08:39:00",
            "2018-04-11T00:03:00",
            "2018-04-11T01:52:00",
            "2018-04-11T02:10:00",
            "2018-04-11T04:17:00",
            "2018-04-12T03:14:00",
            "2018-04-12T04:47:00",
            "2018-04-12T05:02:00",
            "2018-04-12T07:41:00",
            "2018-04-13T03:10:00",
            "2018-04-13T06:10:00",
            "2018-04-13T06:23:00",
            "2018-04-13T07:23:00",
            "2018-04-14T07:32:00",
            "2018-04-14T09:13:00",
            "2018-04-14T09:28:00",
            "2018-04-14T11:47:00",
            "2018-04-16T13:56:00",
            "2018-04-16T15:45:00",
            "2018-04-16T15:56:00",
            "2018-04-16T17:58:00",
            "2018-04-17T08:24:00",
            "2018-04-17T11:21:00",
            "2018-04-17T11:40:00",
            "2018-04-17T12:39:00",
            "2018-04-18T01:52:00",
            "2018-04-18T02:28:00",
            "2018-04-19T13:56:00",
            "2018-04-19T16:08:00",
            "2018-04-19T16:25:00",
            "2018-04-19T18:18:00",
            "2018-04-20T01:13:00",
            "2018-04-20T03:49:00",
            "2018-04-20T04:00:00",
            "2018-04-20T05:16:00",
            "2018-04-23T07:51:00",
            "2018-04-23T11:04:00",
            "2018-04-23T11:23:00",
            "2018-04-23T12:11:00",
            "2018-04-24T03:23:00",
            "2018-04-24T06:26:00",
            "2018-04-24T06:44:00",
            "2018-04-24T07:51:00",
            "2018-04-25T16:12:00",
            "2018-04-25T18:38:00",
            "2018-04-25T18:54:00",
            "2018-04-25T20:19:00",
            "2018-04-26T08:20:00",
            "2018-04-26T11:01:00",
            "2018-04-26T11:10:00",
            "2018-04-26T11:50:00",
            "2018-04-26T12:09:00",
            "2018-04-26T12:33:00",
            "2018-04-27T02:38:00",
            "2018-04-27T03:52:00",
            "2018-04-27T04:07:00",
            "2018-04-27T06:39:00",
            "2018-04-28T12:47:00",
            "2018-04-28T15:55:00",
            "2018-04-28T16:39:00",
            "2018-04-28T17:29:00",
            "2018-05-01T00:20:00",
            "2018-05-01T03:38:00",
            "2018-05-02T08:02:00",
            "2018-05-02T09:22:00",
            "2018-05-02T09:39:00",
            "2018-05-02T12:14:00",
            "2018-05-03T05:15:00",
            "2018-05-03T07:28:00",
            "2018-05-03T07:44:00",
            "2018-05-03T09:24:00",
            "2018-05-05T07:29:00",
            "2018-05-05T10:45:00",
            "2018-05-05T10:59:00",
            "2018-05-05T11:51:00"
         ]
      },
      {
         "workload":{
            "workload_in_minutes":450,
            "minimum_rest_interval_in_minutes":15,
            "days":[
               "mon",
               "tue",
               "wed",
               "thu",
               "fri"
            ]
         },
         "pis_number":"61651962503",
         "name":"Tristan Barker Case",
         "entries":[
            "2018-04-10T08:25:00",
            "2018-04-11T13:26:00",
            "2018-04-11T14:33:00",
            "2018-04-12T04:42:00",
            "2018-04-10T09:53:00",
            "2018-04-12T05:00:00",
            "2018-04-12T08:02:00",
            "2018-04-13T16:06:00",
            "2018-04-13T22:04:00",
            "2018-04-16T01:41:00",
            "2018-04-16T06:15:00",
            "2018-04-16T06:32:00",
            "2018-04-16T09:35:00",
            "2018-04-18T00:15:00",
            "2018-04-18T02:58:00",
            "2018-04-18T03:05:00",
            "2018-04-18T05:34:00",
            "2018-04-18T05:46:00",
            "2018-04-18T06:43:00",
            "2018-04-19T14:22:00",
            "2018-04-19T19:23:00",
            "2018-04-20T00:12:00",
            "2018-04-20T06:14:00",
            "2018-04-20T08:14:00",
            "2018-04-23T09:56:00",
            "2018-04-23T13:03:00",
            "2018-04-23T17:34:00",
            "2018-04-24T10:05:00",
            "2018-04-24T14:10:00",
            "2018-04-24T14:25:00",
            "2018-04-24T17:37:00",
            "2018-04-25T07:39:00",
            "2018-04-25T12:23:00",
            "2018-04-25T12:42:00",
            "2018-04-12T00:08:00",
            "2018-04-25T15:28:00",
            "2018-04-26T09:48:00",
            "2018-04-26T14:26:00",
            "2018-04-26T14:42:00",
            "2018-04-26T17:40:00",
            "2018-04-27T14:00:00",
            "2018-04-27T19:06:00",
            "2018-04-30T08:42:00",
            "2018-04-30T13:34:00",
            "2018-04-30T13:52:00",
            "2018-04-30T16:44:00",
            "2018-05-01T03:10:00",
            "2018-05-01T09:00:00",
            "2018-05-01T09:16:00",
            "2018-05-01T11:06:00",
            "2018-05-02T15:40:00",
            "2018-05-02T19:08:00",
            "2018-04-23T13:16:00",
            "2018-05-02T19:28:00",
            "2018-05-02T23:43:00",
            "2018-05-03T11:42:00",
            "2018-05-03T16:04:00",
            "2018-05-03T16:15:00",
            "2018-05-03T19:10:00",
            "2018-05-04T00:17:00",
            "2018-05-04T04:25:00",
            "2018-04-20T05:55:00",
            "2018-05-04T04:36:00",
            "2018-05-04T08:08:00"
         ]
      },
      {
         "workload":{
            "workload_in_minutes":450,
            "minimum_rest_interval_in_minutes":15,
            "days":[
               "mon",
               "tue",
               "wed",
               "thu",
               "fri"
            ]
         },
         "pis_number":"82058810204",
         "name":"Daphne Ivan Fitzgerald",
         "entries":[
            "2018-04-11T03:46:00",
            "2018-04-11T06:39:00",
            "2018-04-11T06:58:00",
            "2018-04-11T11:41:00",
            "2018-04-12T12:59:00",
            "2018-04-12T15:53:00",
            "2018-04-12T16:12:00",
            "2018-04-12T20:57:00",
            "2018-04-13T15:28:00",
            "2018-04-13T20:30:00",
            "2018-04-13T20:41:00",
            "2018-04-13T22:57:00",
            "2018-04-16T06:35:00",
            "2018-04-16T10:43:00",
            "2018-04-16T10:56:00",
            "2018-04-16T14:11:00",
            "2018-04-17T14:12:00",
            "2018-04-17T17:59:00",
            "2018-04-17T18:10:00",
            "2018-04-17T21:40:00",
            "2018-04-18T15:44:00",
            "2018-04-18T19:03:00",
            "2018-04-18T19:18:00",
            "2018-04-18T20:20:00",
            "2018-04-18T20:33:00",
            "2018-04-18T21:33:00",
            "2018-04-19T04:16:00",
            "2018-04-19T06:28:00",
            "2018-04-19T06:42:00",
            "2018-04-19T11:50:00",
            "2018-04-23T09:40:00",
            "2018-04-23T13:45:00",
            "2018-04-23T13:56:00",
            "2018-04-23T17:25:00",
            "2018-04-24T06:36:00",
            "2018-04-24T08:11:00",
            "2018-04-24T08:15:00",
            "2018-04-24T09:40:00",
            "2018-04-24T09:58:00",
            "2018-04-24T10:55:00",
            "2018-04-25T11:41:00",
            "2018-04-25T15:07:00",
            "2018-04-25T15:25:00",
            "2018-04-25T19:36:00",
            "2018-04-26T05:43:00",
            "2018-04-26T07:02:00",
            "2018-04-27T05:00:00",
            "2018-04-27T09:05:00",
            "2018-04-27T09:24:00",
            "2018-04-27T10:39:00",
            "2018-04-27T10:58:00",
            "2018-04-27T11:43:00",
            "2018-04-30T16:19:00",
            "2018-04-30T19:14:00",
            "2018-04-30T20:16:00",
            "2018-05-01T00:51:00",
            "2018-05-01T01:07:00",
            "2018-05-01T04:36:00",
            "2018-05-01T04:46:00",
            "2018-05-01T08:41:00",
            "2018-05-02T19:42:00",
            "2018-05-02T21:18:00",
            "2018-05-02T21:24:00",
            "2018-05-02T23:33:00",
            "2018-05-02T23:52:00",
            "2018-05-03T00:35:00",
            "2018-05-03T01:31:00",
            "2018-05-03T04:12:00",
            "2018-05-03T04:23:00",
            "2018-05-03T08:58:00"
         ]
      },
      {
         "workload":{
            "workload_in_minutes":270,
            "minimum_rest_interval_in_minutes":0,
            "days":[
               "mon",
               "tue",
               "wed",
               "thu",
               "fri"
            ]
         },
         "pis_number":"80505739206",
         "name":"Sebastian Fox 2nd",
         "entries":[
            "2018-04-10T10:32:00",
            "2018-04-10T13:54:00",
            "2018-04-10T13:55:00",
            "2018-04-10T14:48:00",
            "2018-04-11T12:04:00",
            "2018-04-11T16:19:00",
            "2018-04-12T03:54:00",
            "2018-04-12T08:09:00",
            "2018-04-13T10:49:00",
            "2018-04-13T15:07:00",
            "2018-04-16T02:50:00",
            "2018-04-16T07:27:00",
            "2018-04-17T12:20:00",
            "2018-04-17T14:32:00",
            "2018-04-17T14:35:00",
            "2018-04-17T16:53:00",
            "2018-04-18T11:01:00",
            "2018-04-18T15:22:00",
            "2018-04-19T00:11:00",
            "2018-04-19T04:31:00",
            "2018-04-20T19:56:00",
            "2018-04-20T22:10:00",
            "2018-04-20T22:12:00",
            "2018-04-21T00:21:00",
            "2018-04-23T18:20:00",
            "2018-04-23T21:45:00",
            "2018-04-23T21:47:00",
            "2018-04-23T23:03:00",
            "2018-04-24T18:07:00",
            "2018-04-24T22:32:00",
            "2018-04-25T13:45:00",
            "2018-04-25T16:13:00",
            "2018-04-25T16:14:00",
            "2018-04-25T18:11:00",
            "2018-04-26T11:44:00",
            "2018-04-26T16:02:00",
            "2018-04-28T12:20:00",
            "2018-04-28T12:53:00",
            "2018-04-28T12:58:00",
            "2018-04-28T13:21:00",
            "2018-04-30T12:57:00",
            "2018-04-30T17:38:00",
            "2018-05-01T12:51:00",
            "2018-05-01T17:33:00",
            "2018-05-02T10:19:00",
            "2018-05-02T14:50:00",
            "2018-05-03T13:17:00",
            "2018-05-03T14:48:00",
            "2018-05-03T14:49:00",
            "2018-05-03T17:32:00",
            "2018-05-04T00:46:00",
            "2018-05-04T05:18:00"
         ]
      },
      {
         "workload":{
            "workload_in_minutes":300,
            "minimum_rest_interval_in_minutes":0,
            "days":[
               "mon",
               "tue",
               "wed",
               "thu",
               "fri"
            ]
         },
         "pis_number":"99911156363",
         "name":"Tracy Brewer-Abbey",
         "entries":[
            "2018-04-10T04:40:00",
            "2018-04-10T08:21:00",
            "2018-04-10T08:24:00",
            "2018-04-10T09:54:00",
            "2018-04-11T10:49:00",
            "2018-04-11T15:53:00",
            "2018-04-12T17:59:00",
            "2018-04-12T22:50:00",
            "2018-04-13T12:30:00",
            "2018-04-13T17:32:00",
            "2018-04-16T12:13:00",
            "2018-04-16T15:40:00",
            "2018-04-16T15:44:00",
            "2018-04-16T17:21:00",
            "2018-04-17T08:21:00",
            "2018-04-17T13:26:00",
            "2018-04-18T04:42:00",
            "2018-04-18T09:28:00",
            "2018-04-19T03:44:00",
            "2018-04-19T06:29:00",
            "2018-04-19T06:31:00",
            "2018-04-19T06:58:00",
            "2018-04-19T07:10:00",
            "2018-04-19T07:31:00",
            "2018-04-20T12:11:00",
            "2018-04-20T17:09:00",
            "2018-04-22T22:15:00",
            "2018-04-22T22:55:00",
            "2018-04-22T22:56:00",
            "2018-04-22T23:16:00",
            "2018-04-24T19:03:00",
            "2018-04-24T21:04:00",
            "2018-04-24T21:07:00",
            "2018-04-25T00:02:00",
            "2018-04-25T11:05:00",
            "2018-04-25T13:07:00",
            "2018-04-25T13:08:00",
            "2018-04-25T16:11:00",
            "2018-04-26T13:49:00",
            "2018-04-26T17:21:00",
            "2018-04-26T17:24:00",
            "2018-04-26T18:59:00",
            "2018-04-27T08:26:00",
            "2018-04-27T10:50:00",
            "2018-04-27T10:54:00",
            "2018-04-27T13:31:00",
            "2018-05-01T01:51:00",
            "2018-05-01T05:55:00",
            "2018-05-01T06:00:00",
            "2018-05-01T07:01:00",
            "2018-05-02T04:00:00",
            "2018-05-02T09:07:00",
            "2018-05-03T19:32:00",
            "2018-05-04T00:17:00",
            "2018-05-04T10:20:00",
            "2018-05-04T15:21:00"
         ]
      },
      {
         "workload":{
            "workload_in_minutes":495,
            "minimum_rest_interval_in_minutes":70,
            "days":[
               "mon",
               "tue",
               "wed",
               "thu",
               "fri"
            ]
         },
         "pis_number":"31424957256",
         "name":"Trixie Black-Lake",
         "entries":[
            "2018-04-10T11:42:00",
            "2018-04-10T13:20:00",
            "2018-04-11T06:48:00",
            "2018-04-11T10:46:00",
            "2018-04-11T11:53:00",
            "2018-04-11T16:22:00",
            "2018-04-12T08:18:00",
            "2018-04-12T12:19:00",
            "2018-04-12T13:30:00",
            "2018-04-12T17:31:00",
            "2018-04-13T01:43:00",
            "2018-04-13T04:43:00",
            "2018-04-13T05:51:00",
            "2018-04-13T11:12:00",
            "2018-04-16T10:36:00",
            "2018-04-16T13:38:00",
            "2018-04-16T14:36:00",
            "2018-04-16T15:22:00",
            "2018-04-16T15:32:00",
            "2018-04-16T15:52:00",
            "2018-04-20T09:48:00",
            "2018-04-20T16:00:00",
            "2018-04-20T17:05:00",
            "2018-04-20T19:15:00",
            "2018-04-23T10:18:00",
            "2018-04-23T16:24:00",
            "2018-04-23T17:32:00",
            "2018-04-23T19:27:00",
            "2018-04-24T15:16:00",
            "2018-04-24T21:32:00",
            "2018-04-24T22:29:00",
            "2018-04-25T00:21:00",
            "2018-04-25T03:44:00",
            "2018-04-25T10:13:00",
            "2018-04-25T11:21:00",
            "2018-04-25T12:58:00",
            "2018-04-26T10:58:00",
            "2018-04-26T17:25:00",
            "2018-04-26T18:32:00",
            "2018-04-26T20:08:00",
            "2018-04-27T12:46:00",
            "2018-04-27T17:10:00",
            "2018-04-27T18:17:00",
            "2018-04-27T21:53:00",
            "2018-04-28T20:35:00",
            "2018-04-28T21:11:00",
            "2018-04-28T21:05:00",
            "2018-04-28T21:17:00",
            "2018-04-30T02:00:00",
            "2018-04-30T05:41:00",
            "2018-04-30T06:52:00",
            "2018-04-30T11:33:00",
            "2018-05-01T05:32:00",
            "2018-05-01T11:57:00",
            "2018-05-01T12:15:00",
            "2018-05-01T14:10:00",
            "2018-05-02T14:38:00",
            "2018-05-02T20:35:00",
            "2018-05-03T04:41:00",
            "2018-05-03T07:41:00",
            "2018-05-04T12:26:00",
            "2018-05-04T17:10:00",
            "2018-05-04T18:23:00",
            "2018-05-04T21:40:00"
         ]
      },
      {
         "workload":{
            "workload_in_minutes":360,
            "minimum_rest_interval_in_minutes":15,
            "days":[
               "mon",
               "tue",
               "wed",
               "thu",
               "fri",
               "sat"
            ]
         },
         "pis_number":"14965668681",
         "name":"Michelle Baskerville 2nd",
         "entries":[
            "2018-04-10T14:47:00",
            "2018-04-10T19:01:00",
            "2018-04-10T19:18:00",
            "2018-04-10T21:06:00",
            "2018-04-11T00:46:00",
            "2018-04-11T05:05:00",
            "2018-04-11T05:22:00",
            "2018-04-11T07:08:00",
            "2018-04-12T11:04:00",
            "2018-04-12T15:49:00",
            "2018-04-13T08:23:00",
            "2018-04-13T12:17:00",
            "2018-04-14T12:22:00",
            "2018-04-14T15:06:00",
            "2018-04-14T15:27:00",
            "2018-04-14T18:55:00",
            "2018-04-16T12:55:00",
            "2018-04-16T16:10:00",
            "2018-04-16T17:17:00",
            "2018-04-16T19:56:00",
            "2018-04-17T07:32:00",
            "2018-04-17T11:09:00",
            "2018-04-17T11:20:00",
            "2018-04-17T13:28:00",
            "2018-04-18T09:27:00",
            "2018-04-18T14:00:00",
            "2018-04-18T14:10:00",
            "2018-04-18T15:46:00",
            "2018-04-19T18:07:00",
            "2018-04-19T20:01:00",
            "2018-04-19T20:11:00",
            "2018-04-20T00:04:00",
            "2018-04-20T17:02:00",
            "2018-04-20T21:36:00",
            "2018-04-20T21:51:00",
            "2018-04-20T23:22:00",
            "2018-04-21T16:19:00",
            "2018-04-21T20:39:00",
            "2018-04-21T20:59:00",
            "2018-04-21T22:35:00",
            "2018-04-22T13:50:00",
            "2018-04-22T14:18:00",
            "2018-04-22T14:22:00",
            "2018-04-22T14:42:00",
            "2018-04-24T10:59:00",
            "2018-04-24T14:35:00",
            "2018-04-24T14:47:00",
            "2018-04-24T17:11:00",
            "2018-04-25T03:34:00",
            "2018-04-25T06:52:00",
            "2018-04-25T07:03:00",
            "2018-04-25T09:45:00",
            "2018-04-26T01:54:00",
            "2018-04-26T04:37:00",
            "2018-04-27T18:51:00",
            "2018-04-27T21:05:00",
            "2018-04-27T21:21:00",
            "2018-04-28T01:00:00",
            "2018-04-28T08:21:00",
            "2018-04-28T11:39:00",
            "2018-04-28T11:54:00",
            "2018-04-28T14:29:00",
            "2018-04-30T06:00:00",
            "2018-04-30T09:31:00",
            "2018-04-30T09:45:00",
            "2018-04-30T12:24:00",
            "2018-05-01T05:16:00",
            "2018-05-01T09:51:00",
            "2018-05-01T10:08:00",
            "2018-05-01T11:39:00",
            "2018-05-02T06:26:00",
            "2018-05-02T11:07:00",
            "2018-05-02T11:21:00",
            "2018-05-02T12:35:00",
            "2018-05-03T00:03:00",
            "2018-05-03T02:02:00",
            "2018-05-03T02:22:00",
            "2018-05-03T06:13:00",
            "2018-05-04T11:31:00",
            "2018-05-04T14:50:00",
            "2018-05-04T15:04:00",
            "2018-05-04T17:34:00",
            "2018-05-05T14:08:00",
            "2018-05-05T17:32:00",
            "2018-05-05T17:44:00",
            "2018-05-05T20:17:00"
         ]
      },
      {
         "workload":{
            "workload_in_minutes":360,
            "minimum_rest_interval_in_minutes":30,
            "days":[
               "mon",
               "tue",
               "wed",
               "thu",
               "fri",
               "sat"
            ]
         },
         "pis_number":"10982226761",
         "name":"Harmony Hall Son",
         "entries":[
            "2018-04-10T04:46:00",
            "2018-04-10T09:06:00",
            "2018-04-10T09:41:00",
            "2018-04-10T11:12:00",
            "2018-04-11T09:32:00",
            "2018-04-11T13:30:00",
            "2018-04-12T15:39:00",
            "2018-04-12T19:01:00",
            "2018-04-12T19:29:00",
            "2018-04-12T22:02:00",
            "2018-04-14T06:15:00",
            "2018-04-14T08:07:00",
            "2018-04-14T08:40:00",
            "2018-04-14T12:49:00",
            "2018-04-17T11:46:00",
            "2018-04-17T15:52:00",
            "2018-04-17T16:27:00",
            "2018-04-17T18:34:00",
            "2018-04-18T17:28:00",
            "2018-04-18T22:22:00",
            "2018-04-18T22:57:00",
            "2018-04-19T00:10:00",
            "2018-04-19T10:53:00",
            "2018-04-19T15:27:00",
            "2018-04-19T15:52:00",
            "2018-04-19T17:13:00",
            "2018-04-20T02:40:00",
            "2018-04-20T05:47:00",
            "2018-04-20T06:21:00",
            "2018-04-20T09:06:00",
            "2018-04-24T11:01:00",
            "2018-04-24T13:36:00",
            "2018-04-24T14:10:00",
            "2018-04-24T17:20:00",
            "2018-04-25T09:43:00",
            "2018-04-25T13:09:00",
            "2018-04-25T13:34:00",
            "2018-04-25T16:10:00",
            "2018-04-26T07:37:00",
            "2018-04-26T12:24:00",
            "2018-04-26T12:59:00",
            "2018-04-26T14:24:00",
            "2018-04-28T15:40:00",
            "2018-04-28T17:34:00",
            "2018-04-28T18:04:00",
            "2018-04-28T22:17:00",
            "2018-04-30T01:51:00",
            "2018-04-30T03:17:00",
            "2018-05-01T12:04:00",
            "2018-05-01T14:29:00",
            "2018-05-01T14:58:00",
            "2018-05-01T18:35:00",
            "2018-05-02T02:46:00",
            "2018-05-02T06:58:00",
            "2018-05-02T06:51:00",
            "2018-05-02T08:24:00",
            "2018-05-04T04:58:00",
            "2018-05-04T07:26:00",
            "2018-05-04T08:00:00",
            "2018-05-04T11:43:00",
            "2018-05-05T04:16:00",
            "2018-05-05T07:12:00",
            "2018-05-05T07:46:00",
            "2018-05-05T10:42:00"
         ]
      },
      {
         "workload":{
            "workload_in_minutes":240,
            "minimum_rest_interval_in_minutes":0,
            "days":[
               "mon",
               "tue",
               "wed",
               "thu",
               "fri"
            ]
         },
         "pis_number":"72242123497",
         "name":"Sigmund Tucker Crowley",
         "entries":[
            "2018-04-10T06:07:00",
            "2018-04-10T06:37:00",
            "2018-04-11T20:11:00",
            "2018-04-11T21:20:00",
            "2018-04-11T21:24:00",
            "2018-04-12T00:06:00",
            "2018-04-12T13:50:00",
            "2018-04-12T16:17:00",
            "2018-04-12T16:18:00",
            "2018-04-12T17:48:00",
            "2018-04-13T03:55:00",
            "2018-04-13T05:51:00",
            "2018-04-13T06:44:00",
            "2018-04-13T08:45:00",
            "2018-04-16T17:15:00",
            "2018-04-16T21:17:00",
            "2018-04-17T13:35:00",
            "2018-04-17T15:04:00",
            "2018-04-17T14:45:00",
            "2018-04-17T17:16:00",
            "2018-04-19T05:05:00",
            "2018-04-19T07:58:00",
            "2018-04-19T08:00:00",
            "2018-04-19T09:03:00",
            "2018-04-20T09:39:00",
            "2018-04-20T12:08:00",
            "2018-04-20T12:09:00",
            "2018-04-20T13:33:00",
            "2018-04-23T18:52:00",
            "2018-04-23T22:46:00",
            "2018-04-24T17:47:00",
            "2018-04-24T21:41:00",
            "2018-04-25T06:28:00",
            "2018-04-25T10:25:00",
            "2018-04-26T17:45:00",
            "2018-04-26T21:38:00",
            "2018-04-27T16:04:00",
            "2018-04-27T19:53:00",
            "2018-04-29T16:22:00",
            "2018-04-29T17:23:00",
            "2018-05-01T15:21:00",
            "2018-05-01T19:35:00",
            "2018-05-02T19:25:00",
            "2018-05-02T22:07:00",
            "2018-05-03T07:24:00",
            "2018-05-03T11:33:00",
            "2018-05-04T00:39:00",
            "2018-05-04T04:35:00"
         ]
      },
      {
         "workload":{
            "workload_in_minutes":450,
            "minimum_rest_interval_in_minutes":15,
            "days":[
               "mon",
               "tue",
               "wed",
               "thu",
               "fri"
            ]
         },
         "pis_number":"12954352657",
         "name":"Ferris Hall 2nd",
         "entries":[
            "2018-04-10T03:28:00",
            "2018-04-10T08:24:00",
            "2018-04-10T08:36:00",
            "2018-04-10T11:15:00",
            "2018-04-11T09:47:00",
            "2018-04-11T15:25:00",
            "2018-04-11T15:42:00",
            "2018-04-11T17:34:00",
            "2018-04-12T12:00:00",
            "2018-04-12T16:21:00",
            "2018-04-12T16:34:00",
            "2018-04-12T19:36:00",
            "2018-04-13T13:45:00",
            "2018-04-13T19:03:00",
            "2018-04-13T19:14:00",
            "2018-04-13T21:17:00",
            "2018-04-16T00:01:00",
            "2018-04-16T05:40:00",
            "2018-04-16T05:52:00",
            "2018-04-16T07:51:00",
            "2018-04-17T10:46:00",
            "2018-04-17T16:07:00",
            "2018-04-17T16:25:00",
            "2018-04-17T18:30:00",
            "2018-04-18T01:28:00",
            "2018-04-18T03:18:00",
            "2018-04-20T05:34:00",
            "2018-04-20T09:46:00",
            "2018-04-20T09:59:00",
            "2018-04-20T13:17:00",
            "2018-04-23T05:32:00",
            "2018-04-23T08:17:00",
            "2018-04-24T13:40:00",
            "2018-04-24T19:12:00",
            "2018-04-24T19:21:00",
            "2018-04-24T21:24:00",
            "2018-04-25T10:51:00",
            "2018-04-25T16:13:00",
            "2018-04-25T16:30:00",
            "2018-04-25T18:41:00",
            "2018-04-26T14:57:00",
            "2018-04-26T17:42:00",
            "2018-04-26T18:00:00",
            "2018-04-26T22:42:00",
            "2018-04-27T06:12:00",
            "2018-04-27T09:34:00",
            "2018-04-30T06:40:00",
            "2018-04-30T11:17:00",
            "2018-04-30T11:33:00",
            "2018-04-30T14:37:00",
            "2018-05-01T10:46:00",
            "2018-05-01T14:32:00",
            "2018-05-01T14:50:00",
            "2018-05-01T18:36:00",
            "2018-05-03T13:59:00",
            "2018-05-03T18:30:00",
            "2018-05-03T18:48:00",
            "2018-05-03T21:56:00",
            "2018-05-04T10:19:00",
            "2018-05-04T14:42:00"
         ]
      },
      {
         "workload":{
            "workload_in_minutes":540,
            "minimum_rest_interval_in_minutes":60,
            "days":[
               "mon",
               "tue",
               "wed",
               "thu",
               "fri",
               "sat"
            ]
         },
         "pis_number":"17492931903",
         "name":"Juliet Taylor Son",
         "entries":[
            "2018-04-10T04:06:00",
            "2018-04-10T08:32:00",
            "2018-04-10T09:31:00",
            "2018-04-10T13:57:00",
            "2018-04-11T01:51:00",
            "2018-04-11T05:34:00",
            "2018-04-11T05:42:00",
            "2018-04-11T10:50:00",
            "2018-04-12T09:29:00",
            "2018-04-12T12:40:00",
            "2018-04-12T13:43:00",
            "2018-04-12T19:38:00",
            "2018-04-13T06:26:00",
            "2018-04-13T09:46:00",
            "2018-04-13T10:43:00",
            "2018-04-13T16:10:00",
            "2018-04-14T12:18:00",
            "2018-04-14T18:43:00",
            "2018-04-14T19:47:00",
            "2018-04-14T22:09:00",
            "2018-04-16T14:01:00",
            "2018-04-16T17:07:00",
            "2018-04-16T18:12:00",
            "2018-04-16T23:58:00",
            "2018-04-17T02:11:00",
            "2018-04-17T05:14:00",
            "2018-04-17T06:10:00",
            "2018-04-17T12:21:00",
            "2018-04-19T02:54:00",
            "2018-04-19T07:14:00",
            "2018-04-19T08:13:00",
            "2018-04-19T13:07:00",
            "2018-04-20T07:52:00",
            "2018-04-20T11:34:00",
            "2018-04-20T12:31:00",
            "2018-04-20T18:04:00",
            "2018-04-21T02:23:00",
            "2018-04-21T05:47:00",
            "2018-04-21T06:42:00",
            "2018-04-21T12:15:00",
            "2018-04-23T13:33:00",
            "2018-04-23T20:08:00",
            "2018-04-23T21:06:00",
            "2018-04-23T23:24:00",
            "2018-04-25T00:44:00",
            "2018-04-25T07:47:00",
            "2018-04-25T08:47:00",
            "2018-04-25T10:46:00",
            "2018-04-26T08:21:00",
            "2018-04-26T17:07:00",
            "2018-04-27T00:47:00",
            "2018-04-27T06:17:00",
            "2018-04-27T07:14:00",
            "2018-04-27T10:44:00",
            "2018-04-28T13:32:00",
            "2018-04-28T16:38:00",
            "2018-04-30T05:37:00",
            "2018-04-30T12:00:00",
            "2018-04-30T13:05:00",
            "2018-04-30T15:34:00",
            "2018-05-01T15:29:00",
            "2018-05-01T18:55:00",
            "2018-05-01T19:55:00",
            "2018-05-02T01:17:00",
            "2018-05-02T13:48:00",
            "2018-05-02T17:42:00",
            "2018-05-02T18:44:00",
            "2018-05-02T23:42:00",
            "2018-05-03T06:15:00",
            "2018-05-03T13:18:00",
            "2018-05-03T14:18:00",
            "2018-05-03T16:03:00",
            "2018-05-04T07:50:00",
            "2018-05-04T14:19:00",
            "2018-05-05T07:04:00",
            "2018-05-05T13:27:00",
            "2018-05-05T14:29:00",
            "2018-05-05T16:51:00"
         ]
      },
      {
         "workload":{
            "workload_in_minutes":450,
            "minimum_rest_interval_in_minutes":15,
            "days":[
               "mon",
               "tue",
               "wed",
               "thu"
            ]
         },
         "pis_number":"13429865327",
         "name":"Ronald Dunham Hadley",
         "entries":[
            "2018-04-10T07:56:00",
            "2018-04-10T14:26:00",
            "2018-04-11T12:22:00",
            "2018-04-11T18:23:00",
            "2018-04-12T16:38:00",
            "2018-04-12T21:08:00",
            "2018-04-12T21:18:00",
            "2018-04-13T00:11:00",
            "2018-04-16T08:14:00",
            "2018-04-16T13:38:00",
            "2018-04-16T12:57:00",
            "2018-04-16T14:56:00",
            "2018-04-17T10:09:00",
            "2018-04-17T13:54:00",
            "2018-04-17T14:09:00",
            "2018-04-17T17:45:00",
            "2018-04-18T10:00:00",
            "2018-04-18T15:35:00",
            "2018-04-18T15:54:00",
            "2018-04-18T17:39:00",
            "2018-04-20T22:11:00",
            "2018-04-20T23:08:00",
            "2018-04-22T16:29:00",
            "2018-04-22T17:36:00",
            "2018-04-23T07:28:00",
            "2018-04-23T12:43:00",
            "2018-04-23T12:59:00",
            "2018-04-23T15:14:00",
            "2018-04-24T04:12:00",
            "2018-04-24T07:24:00",
            "2018-04-25T15:43:00",
            "2018-04-25T23:22:00",
            "2018-04-26T04:43:00",
            "2018-04-26T08:16:00",
            "2018-04-26T08:39:00",
            "2018-04-26T12:39:00",
            "2018-04-30T03:28:00",
            "2018-04-30T07:41:00",
            "2018-04-30T07:57:00",
            "2018-04-30T11:07:00",
            "2018-05-01T10:10:00",
            "2018-05-01T12:45:00",
            "2018-05-01T13:08:00",
            "2018-05-01T17:57:00",
            "2018-05-02T05:06:00",
            "2018-05-02T09:29:00",
            "2018-05-02T09:47:00",
            "2018-05-02T12:58:00",
            "2018-05-03T09:06:00",
            "2018-05-03T12:59:00",
            "2018-05-03T13:19:00",
            "2018-05-03T17:03:00"
         ]
      },
      {
         "workload":{
            "workload_in_minutes":390,
            "minimum_rest_interval_in_minutes":15,
            "days":[
               "mon",
               "tue",
               "wed",
               "thu",
               "fri"
            ]
         },
         "pis_number":"45053110811",
         "name":"Lorelei Byrd",
         "entries":[
            "2018-04-10T03:25:00",
            "2018-04-10T07:22:00",
            "2018-04-10T08:00:00",
            "2018-04-10T10:19:00",
            "2018-04-11T01:58:00",
            "2018-04-11T08:18:00",
            "2018-04-12T08:18:00",
            "2018-04-12T11:36:00",
            "2018-04-13T07:17:00",
            "2018-04-13T11:43:00",
            "2018-04-13T11:59:00",
            "2018-04-13T14:10:00",
            "2018-04-16T04:40:00",
            "2018-04-16T06:52:00",
            "2018-04-16T07:09:00",
            "2018-04-16T11:37:00",
            "2018-04-17T13:03:00",
            "2018-04-17T17:29:00",
            "2018-04-17T17:49:00",
            "2018-04-17T19:43:00",
            "2018-04-18T09:56:00",
            "2018-04-18T12:24:00",
            "2018-04-19T09:04:00",
            "2018-04-19T13:46:00",
            "2018-04-19T14:05:00",
            "2018-04-19T15:55:00",
            "2018-04-20T14:15:00",
            "2018-04-20T19:11:00",
            "2018-04-20T19:13:00",
            "2018-04-20T20:36:00",
            "2018-04-21T14:21:00",
            "2018-04-21T14:51:00",
            "2018-04-23T08:50:00",
            "2018-04-23T11:48:00",
            "2018-04-23T12:01:00",
            "2018-04-23T15:38:00",
            "2018-04-24T12:47:00",
            "2018-04-24T16:51:00",
            "2018-04-24T17:04:00",
            "2018-04-24T19:15:00",
            "2018-04-25T02:47:00",
            "2018-04-25T04:47:00",
            "2018-04-25T05:03:00",
            "2018-04-25T05:57:00",
            "2018-04-25T06:15:00",
            "2018-04-25T06:33:00",
            "2018-04-27T11:20:00",
            "2018-04-27T16:06:00",
            "2018-04-27T16:19:00",
            "2018-04-27T18:15:00",
            "2018-04-30T04:01:00",
            "2018-04-30T07:05:00",
            "2018-04-30T07:25:00",
            "2018-04-30T10:44:00",
            "2018-05-02T13:07:00",
            "2018-05-02T15:24:00",
            "2018-05-02T15:42:00",
            "2018-05-02T20:08:00",
            "2018-05-03T03:57:00",
            "2018-05-03T06:25:00",
            "2018-05-03T06:36:00",
            "2018-05-03T10:37:00",
            "2018-05-04T01:41:00",
            "2018-05-04T06:15:00",
            "2018-05-04T06:32:00",
            "2018-05-04T08:13:00"
         ]
      },
      {
         "workload":{
            "workload_in_minutes":240,
            "minimum_rest_interval_in_minutes":0,
            "days":[
               "mon",
               "tue",
               "wed",
               "thu",
               "fri"
            ]
         },
         "pis_number":"65272793250",
         "name":"Sapphire Barrett Son",
         "entries":[
            "2018-04-10T11:56:00",
            "2018-04-10T14:20:00",
            "2018-04-10T14:22:00",
            "2018-04-10T16:02:00",
            "2018-04-11T02:22:00",
            "2018-04-11T05:04:00",
            "2018-04-11T05:09:00",
            "2018-04-11T06:15:00",
            "2018-04-12T16:26:00",
            "2018-04-12T20:31:00",
            "2018-04-13T16:15:00",
            "2018-04-13T19:19:00",
            "2018-04-13T19:23:00",
            "2018-04-13T20:24:00",
            "2018-04-16T09:14:00",
            "2018-04-16T10:51:00",
            "2018-04-16T10:53:00",
            "2018-04-16T13:02:00",
            "2018-04-17T08:34:00",
            "2018-04-17T11:12:00",
            "2018-04-17T11:17:00",
            "2018-04-17T12:35:00",
            "2018-04-18T08:33:00",
            "2018-04-18T11:10:00",
            "2018-04-19T16:59:00",
            "2018-04-19T18:14:00",
            "2018-04-20T16:38:00",
            "2018-04-20T18:57:00",
            "2018-04-20T18:58:00",
            "2018-04-20T19:50:00",
            "2018-04-20T20:06:00",
            "2018-04-20T20:28:00",
            "2018-04-23T07:19:00",
            "2018-04-23T08:35:00",
            "2018-04-23T08:36:00",
            "2018-04-23T11:05:00",
            "2018-04-25T20:50:00",
            "2018-04-25T22:32:00",
            "2018-04-25T22:34:00",
            "2018-04-25T23:15:00",
            "2018-04-25T23:30:00",
            "2018-04-26T00:05:00",
            "2018-04-26T16:19:00",
            "2018-04-26T18:59:00",
            "2018-04-26T19:02:00",
            "2018-04-26T20:24:00",
            "2018-04-27T04:49:00",
            "2018-04-27T05:19:00",
            "2018-04-29T03:11:00",
            "2018-04-29T03:40:00",
            "2018-04-29T03:43:00",
            "2018-04-29T04:09:00",
            "2018-04-30T17:25:00",
            "2018-04-30T21:28:00",
            "2018-05-01T09:05:00",
            "2018-05-01T13:16:00",
            "2018-05-02T07:10:00",
            "2018-05-02T11:25:00",
            "2018-05-03T10:01:00",
            "2018-05-03T13:55:00",
            "2018-05-04T12:08:00",
            "2018-05-04T16:08:00",
            "2018-05-05T18:51:00",
            "2018-05-05T19:21:00"
         ]
      },
      {
         "workload":{
            "workload_in_minutes":540,
            "minimum_rest_interval_in_minutes":90,
            "days":[
               "mon",
               "tue",
               "wed",
               "thu",
               "fri",
               "sat"
            ]
         },
         "pis_number":"67422098397",
         "name":"Roy Barker Son",
         "entries":[
            "2018-04-10T04:56:00",
            "2018-04-10T07:38:00",
            "2018-04-10T09:11:00",
            "2018-04-10T15:29:00",
            "2018-04-11T14:41:00",
            "2018-04-11T20:01:00",
            "2018-04-11T21:29:00",
            "2018-04-12T01:02:00",
            "2018-04-14T04:00:00",
            "2018-04-14T07:24:00",
            "2018-04-14T08:49:00",
            "2018-04-14T14:22:00",
            "2018-04-16T06:31:00",
            "2018-04-16T08:14:00",
            "2018-04-17T09:26:00",
            "2018-04-17T15:20:00",
            "2018-04-17T16:46:00",
            "2018-04-17T19:40:00",
            "2018-04-18T12:43:00",
            "2018-04-18T18:08:00",
            "2018-04-18T19:36:00",
            "2018-04-18T22:55:00",
            "2018-04-19T10:12:00",
            "2018-04-19T15:10:00",
            "2018-04-19T16:48:00",
            "2018-04-19T20:42:00",
            "2018-04-20T02:01:00",
            "2018-04-20T07:55:00",
            "2018-04-20T09:29:00",
            "2018-04-20T12:31:00",
            "2018-04-21T00:47:00",
            "2018-04-21T06:39:00",
            "2018-04-21T08:04:00",
            "2018-04-21T10:57:00",
            "2018-04-22T17:07:00",
            "2018-04-22T18:01:00",
            "2018-04-23T05:40:00",
            "2018-04-23T09:49:00",
            "2018-04-23T11:24:00",
            "2018-04-23T16:29:00",
            "2018-04-24T15:21:00",
            "2018-04-24T20:52:00",
            "2018-04-24T22:27:00",
            "2018-04-25T01:50:00",
            "2018-04-25T03:43:00",
            "2018-04-25T09:20:00",
            "2018-04-25T10:55:00",
            "2018-04-25T14:22:00",
            "2018-04-26T08:11:00",
            "2018-04-26T15:05:00",
            "2018-04-26T16:38:00",
            "2018-04-26T18:35:00",
            "2018-04-27T10:25:00",
            "2018-04-27T15:00:00",
            "2018-04-27T16:35:00",
            "2018-04-27T20:59:00",
            "2018-04-30T07:02:00",
            "2018-04-30T11:42:00",
            "2018-04-30T12:22:00",
            "2018-04-30T16:40:00",
            "2018-05-01T08:04:00",
            "2018-05-01T15:24:00",
            "2018-05-01T16:58:00",
            "2018-05-01T18:48:00",
            "2018-05-02T12:37:00",
            "2018-05-02T15:34:00",
            "2018-05-02T17:59:00",
            "2018-05-03T00:00:00",
            "2018-05-03T04:17:00",
            "2018-05-03T11:28:00",
            "2018-05-03T12:57:00",
            "2018-05-03T14:44:00",
            "2018-05-04T09:49:00",
            "2018-05-04T15:11:00",
            "2018-05-04T16:46:00",
            "2018-05-04T20:30:00",
            "2018-05-05T11:08:00",
            "2018-05-05T16:01:00",
            "2018-05-05T17:36:00",
            "2018-05-05T21:35:00"
         ]
      },
      {
         "workload":{
            "workload_in_minutes":270,
            "minimum_rest_interval_in_minutes":0,
            "days":[
               "mon",
               "tue",
               "wed",
               "thu",
               "fri",
               "sat"
            ]
         },
         "pis_number":"94989552827",
         "name":"Catherine Trevor 2nd",
         "entries":[
            "2018-04-10T11:24:00",
            "2018-04-10T14:32:00",
            "2018-04-10T14:34:00",
            "2018-04-10T15:47:00",
            "2018-04-12T17:00:00",
            "2018-04-12T20:02:00",
            "2018-04-12T20:04:00",
            "2018-04-12T21:46:00",
            "2018-04-13T06:41:00",
            "2018-04-13T09:23:00",
            "2018-04-13T09:00:00",
            "2018-04-13T10:44:00",
            "2018-04-14T01:09:00",
            "2018-04-14T05:43:00",
            "2018-04-17T06:29:00",
            "2018-04-17T10:47:00",
            "2018-04-18T19:52:00",
            "2018-04-18T22:19:00",
            "2018-04-18T22:23:00",
            "2018-04-19T00:10:00",
            "2018-04-19T15:49:00",
            "2018-04-19T18:41:00",
            "2018-04-19T18:04:00",
            "2018-04-19T19:40:00",
            "2018-04-20T19:34:00",
            "2018-04-20T22:30:00",
            "2018-04-20T22:32:00",
            "2018-04-21T00:02:00",
            "2018-04-21T18:32:00",
            "2018-04-21T23:04:00",
            "2018-04-24T12:43:00",
            "2018-04-24T17:07:00",
            "2018-04-25T11:26:00",
            "2018-04-25T12:51:00",
            "2018-04-25T12:52:00",
            "2018-04-25T15:46:00",
            "2018-04-26T04:31:00",
            "2018-04-26T08:47:00",
            "2018-04-27T17:49:00",
            "2018-04-27T19:53:00",
            "2018-04-28T15:04:00",
            "2018-04-28T19:43:00",
            "2018-04-30T03:20:00",
            "2018-04-30T07:40:00",
            "2018-05-01T01:14:00",
            "2018-05-01T02:58:00",
            "2018-05-01T03:03:00",
            "2018-05-01T06:00:00",
            "2018-05-02T11:23:00",
            "2018-05-02T16:05:00",
            "2018-05-03T02:57:00",
            "2018-05-03T05:16:00",
            "2018-05-03T05:21:00",
            "2018-05-03T07:35:00",
            "2018-05-04T04:28:00",
            "2018-05-04T09:01:00"
         ]
      },
      {
         "workload":{
            "workload_in_minutes":270,
            "minimum_rest_interval_in_minutes":0,
            "days":[
               "mon",
               "tue",
               "wed",
               "thu",
               "fri"
            ]
         },
         "pis_number":"79345554633",
         "name":"Morton Mitchell 2nd",
         "entries":[
            "2018-04-10T11:15:00",
            "2018-04-10T13:58:00",
            "2018-04-10T14:02:00",
            "2018-04-10T15:38:00",
            "2018-04-11T17:37:00",
            "2018-04-11T22:12:00",
            "2018-04-13T02:19:00",
            "2018-04-13T06:42:00",
            "2018-04-16T16:50:00",
            "2018-04-16T19:37:00",
            "2018-04-16T19:21:00",
            "2018-04-16T21:08:00",
            "2018-04-18T02:45:00",
            "2018-04-18T07:13:00",
            "2018-04-19T05:07:00",
            "2018-04-19T05:37:00",
            "2018-04-20T10:09:00",
            "2018-04-20T14:42:00",
            "2018-04-23T08:02:00",
            "2018-04-23T12:36:00",
            "2018-04-24T16:44:00",
            "2018-04-24T21:06:00",
            "2018-04-25T16:41:00",
            "2018-04-25T21:05:00",
            "2018-04-26T19:03:00",
            "2018-04-26T23:29:00",
            "2018-04-27T05:41:00",
            "2018-04-27T10:16:00",
            "2018-04-30T16:43:00",
            "2018-04-30T19:42:00",
            "2018-04-30T18:56:00",
            "2018-04-30T20:41:00",
            "2018-05-03T10:47:00",
            "2018-05-03T15:32:00",
            "2018-05-04T07:19:00",
            "2018-05-04T11:39:00"
         ]
      },
      {
         "workload":{
            "workload_in_minutes":540,
            "minimum_rest_interval_in_minutes":60,
            "days":[
               "mon",
               "tue",
               "wed",
               "thu"
            ]
         },
         "pis_number":"95125071708",
         "name":"Donna Walter Drake",
         "entries":[
            "2018-04-10T12:30:00",
            "2018-04-10T19:22:00",
            "2018-04-10T20:22:00",
            "2018-04-10T22:39:00",
            "2018-04-11T01:52:00",
            "2018-04-11T06:23:00",
            "2018-04-11T07:19:00",
            "2018-04-11T11:50:00",
            "2018-04-12T09:49:00",
            "2018-04-12T15:26:00",
            "2018-04-12T16:30:00",
            "2018-04-12T19:40:00",
            "2018-04-16T06:38:00",
            "2018-04-16T11:28:00",
            "2018-04-16T12:26:00",
            "2018-04-16T16:44:00",
            "2018-04-17T05:22:00",
            "2018-04-17T11:59:00",
            "2018-04-17T12:56:00",
            "2018-04-17T15:08:00",
            "2018-04-18T14:09:00",
            "2018-04-18T17:48:00",
            "2018-04-18T18:53:00",
            "2018-04-19T00:21:00",
            "2018-04-19T08:38:00",
            "2018-04-19T12:25:00",
            "2018-04-19T13:28:00",
            "2018-04-19T18:54:00",
            "2018-04-21T00:41:00",
            "2018-04-21T01:39:00",
            "2018-04-23T13:14:00",
            "2018-04-23T19:50:00",
            "2018-04-23T20:50:00",
            "2018-04-23T23:24:00",
            "2018-04-24T10:55:00",
            "2018-04-24T14:34:00",
            "2018-04-24T15:29:00",
            "2018-04-24T20:57:00",
            "2018-04-25T01:59:00",
            "2018-04-25T05:58:00",
            "2018-04-25T06:57:00",
            "2018-04-25T11:49:00",
            "2018-04-26T10:07:00",
            "2018-04-26T17:08:00",
            "2018-04-26T18:13:00",
            "2018-04-26T20:26:00",
            "2018-05-01T13:30:00",
            "2018-05-01T17:44:00",
            "2018-05-01T18:48:00",
            "2018-05-01T23:35:00",
            "2018-05-02T11:52:00",
            "2018-05-02T16:14:00",
            "2018-05-02T17:17:00",
            "2018-05-02T21:50:00",
            "2018-05-03T13:49:00",
            "2018-05-03T17:27:00",
            "2018-05-03T17:36:00",
            "2018-05-03T22:51:00",
            "2018-05-06T06:48:00",
            "2018-05-06T07:55:00"
         ]
      },
      {
         "workload":{
            "workload_in_minutes":495,
            "minimum_rest_interval_in_minutes":70,
            "days":[
               "mon",
               "tue",
               "wed",
               "thu",
               "fri"
            ]
         },
         "pis_number":"15770923427",
         "name":"Wallace Barber",
         "entries":[
            "2018-04-10T03:24:00",
            "2018-04-10T06:32:00",
            "2018-04-10T07:42:00",
            "2018-04-10T12:50:00",
            "2018-04-11T06:51:00",
            "2018-04-11T13:08:00",
            "2018-04-11T14:22:00",
            "2018-04-11T16:27:00",
            "2018-04-12T05:49:00",
            "2018-04-12T10:40:00",
            "2018-04-12T11:52:00",
            "2018-04-12T15:06:00",
            "2018-04-13T14:05:00",
            "2018-04-13T20:04:00",
            "2018-04-13T21:11:00",
            "2018-04-13T23:24:00",
            "2018-04-14T09:25:00",
            "2018-04-14T10:26:00",
            "2018-04-15T18:00:00",
            "2018-04-15T18:45:00",
            "2018-04-16T00:56:00",
            "2018-04-16T03:42:00",
            "2018-04-16T04:47:00",
            "2018-04-16T10:11:00",
            "2018-04-17T02:02:00",
            "2018-04-17T07:56:00",
            "2018-04-17T09:10:00",
            "2018-04-17T11:20:00",
            "2018-04-18T06:09:00",
            "2018-04-18T10:48:00",
            "2018-04-18T11:58:00",
            "2018-04-18T15:20:00",
            "2018-04-19T15:19:00",
            "2018-04-19T18:47:00",
            "2018-04-19T19:49:00",
            "2018-04-19T22:45:00",
            "2018-04-19T23:05:00",
            "2018-04-20T00:57:00",
            "2018-04-20T11:23:00",
            "2018-04-20T15:57:00",
            "2018-04-20T17:06:00",
            "2018-04-20T21:00:00",
            "2018-04-23T13:10:00",
            "2018-04-23T17:25:00",
            "2018-04-23T18:30:00",
            "2018-04-23T22:35:00",
            "2018-04-24T12:59:00",
            "2018-04-24T16:56:00",
            "2018-04-24T18:08:00",
            "2018-04-24T22:14:00",
            "2018-04-25T13:12:00",
            "2018-04-25T19:02:00",
            "2018-04-25T20:09:00",
            "2018-04-25T22:18:00",
            "2018-04-26T11:29:00",
            "2018-04-26T16:11:00",
            "2018-04-26T17:23:00",
            "2018-04-26T21:05:00",
            "2018-04-27T06:24:00",
            "2018-04-27T10:15:00",
            "2018-04-27T11:30:00",
            "2018-04-27T15:40:00",
            "2018-04-30T09:33:00",
            "2018-04-30T15:50:00",
            "2018-05-01T15:39:00",
            "2018-05-01T18:20:00",
            "2018-05-01T19:30:00",
            "2018-05-02T00:57:00",
            "2018-05-02T08:12:00",
            "2018-05-02T14:17:00",
            "2018-05-02T15:25:00",
            "2018-05-02T17:33:00",
            "2018-05-03T07:40:00",
            "2018-05-03T12:43:00",
            "2018-05-03T12:56:00",
            "2018-05-03T16:02:00",
            "2018-05-04T10:10:00",
            "2018-05-04T13:32:00",
            "2018-05-04T14:27:00",
            "2018-05-04T19:18:00"
         ]
      },
      {
         "workload":{
            "workload_in_minutes":480,
            "minimum_rest_interval_in_minutes":60,
            "days":[
               "mon",
               "tue",
               "wed",
               "thu",
               "fri"
            ]
         },
         "pis_number":"78459942138",
         "name":"Buck Byrd Armstrong",
         "entries":[
            "2018-04-10T08:19:00",
            "2018-04-10T11:20:00",
            "2018-04-10T12:21:00",
            "2018-04-10T17:30:00",
            "2018-04-11T03:30:00",
            "2018-04-11T06:21:00",
            "2018-04-11T07:24:00",
            "2018-04-11T12:42:00",
            "2018-04-12T02:51:00",
            "2018-04-12T07:53:00",
            "2018-04-12T08:55:00",
            "2018-04-12T12:00:00",
            "2018-04-16T12:05:00",
            "2018-04-16T15:36:00",
            "2018-04-17T14:41:00",
            "2018-04-17T20:08:00",
            "2018-04-17T21:04:00",
            "2018-04-17T23:38:00",
            "2018-04-18T00:57:00",
            "2018-04-18T05:13:00",
            "2018-04-18T06:14:00",
            "2018-04-18T10:01:00",
            "2018-04-19T09:25:00",
            "2018-04-19T13:07:00",
            "2018-04-19T14:02:00",
            "2018-04-19T18:22:00",
            "2018-04-20T01:33:00",
            "2018-04-20T05:01:00",
            "2018-04-20T05:59:00",
            "2018-04-20T10:24:00",
            "2018-04-23T05:05:00",
            "2018-04-23T07:57:00",
            "2018-04-23T08:59:00",
            "2018-04-23T13:53:00",
            "2018-04-24T11:14:00",
            "2018-04-24T17:28:00",
            "2018-04-24T18:26:00",
            "2018-04-24T20:11:00",
            "2018-04-25T01:08:00",
            "2018-04-25T03:36:00",
            "2018-04-25T04:35:00",
            "2018-04-25T09:51:00",
            "2018-04-26T06:49:00",
            "2018-04-26T10:18:00",
            "2018-04-26T11:21:00",
            "2018-04-26T15:36:00",
            "2018-04-27T15:59:00",
            "2018-04-27T18:45:00",
            "2018-04-27T19:40:00",
            "2018-04-28T01:02:00",
            "2018-05-01T13:16:00",
            "2018-05-01T19:07:00",
            "2018-05-01T20:06:00",
            "2018-05-01T22:16:00",
            "2018-05-02T12:20:00",
            "2018-05-02T15:50:00",
            "2018-05-02T16:50:00",
            "2018-05-02T21:17:00",
            "2018-05-04T10:24:00",
            "2018-05-04T12:55:00",
            "2018-05-04T14:00:00",
            "2018-05-04T19:20:00"
         ]
      },
      {
         "workload":{
            "workload_in_minutes":540,
            "minimum_rest_interval_in_minutes":60,
            "days":[
               "mon",
               "tue",
               "wed",
               "thu",
               "fri"
            ]
         },
         "pis_number":"23428647986",
         "name":"Lola Curry-Barker",
         "entries":[
            "2018-04-10T08:40:00",
            "2018-04-10T12:41:00",
            "2018-04-10T13:42:00",
            "2018-04-10T18:26:00",
            "2018-04-11T00:57:00",
            "2018-04-11T03:56:00",
            "2018-04-11T04:55:00",
            "2018-04-11T10:59:00",
            "2018-04-12T14:47:00",
            "2018-04-12T19:50:00",
            "2018-04-12T20:52:00",
            "2018-04-13T00:59:00",
            "2018-04-13T12:36:00",
            "2018-04-13T16:01:00",
            "2018-04-13T16:10:00",
            "2018-04-13T21:44:00",
            "2018-04-14T14:13:00",
            "2018-04-14T14:43:00",
            "2018-04-16T01:18:00",
            "2018-04-16T07:20:00",
            "2018-04-16T08:19:00",
            "2018-04-16T11:02:00",
            "2018-04-17T07:43:00",
            "2018-04-17T14:21:00",
            "2018-04-17T15:23:00",
            "2018-04-17T17:43:00",
            "2018-04-18T05:52:00",
            "2018-04-18T12:35:00",
            "2018-04-18T13:30:00",
            "2018-04-18T15:37:00",
            "2018-04-19T14:31:00",
            "2018-04-19T19:45:00",
            "2018-04-19T20:46:00",
            "2018-04-20T00:42:00",
            "2018-04-20T11:44:00",
            "2018-04-20T17:21:00",
            "2018-04-20T17:25:00",
            "2018-04-20T21:01:00",
            "2018-04-23T06:01:00",
            "2018-04-23T11:51:00",
            "2018-04-23T12:50:00",
            "2018-04-23T16:07:00",
            "2018-04-24T04:02:00",
            "2018-04-24T10:56:00",
            "2018-04-24T11:59:00",
            "2018-04-24T13:56:00",
            "2018-04-25T08:48:00",
            "2018-04-25T15:19:00",
            "2018-04-25T16:15:00",
            "2018-04-25T18:55:00",
            "2018-04-26T05:36:00",
            "2018-04-26T11:17:00",
            "2018-04-26T12:12:00",
            "2018-04-26T15:32:00",
            "2018-04-27T02:27:00",
            "2018-04-27T03:56:00",
            "2018-04-30T08:49:00",
            "2018-04-30T12:14:00",
            "2018-04-30T13:17:00",
            "2018-04-30T18:51:00",
            "2018-05-01T09:01:00",
            "2018-05-01T15:44:00",
            "2018-05-01T16:30:00",
            "2018-05-01T18:37:00",
            "2018-05-02T10:09:00",
            "2018-05-02T16:31:00",
            "2018-05-02T17:34:00",
            "2018-05-02T20:26:00",
            "2018-05-03T15:43:00",
            "2018-05-03T20:17:00",
            "2018-05-03T21:14:00",
            "2018-05-04T01:38:00",
            "2018-05-04T10:22:00",
            "2018-05-04T13:09:00"
         ]
      },
      {
         "workload":{
            "workload_in_minutes":390,
            "minimum_rest_interval_in_minutes":15,
            "days":[
               "mon",
               "tue",
               "wed",
               "thu",
               "fri"
            ]
         },
         "pis_number":"33042243218",
         "name":"Richard Babbage 2nd",
         "entries":[
            "2018-04-10T06:05:00",
            "2018-04-10T10:21:00",
            "2018-04-10T10:38:00",
            "2018-04-10T12:44:00",
            "2018-04-12T03:00:00",
            "2018-04-12T08:11:00",
            "2018-04-12T08:22:00",
            "2018-04-12T09:55:00",
            "2018-04-13T02:43:00",
            "2018-04-13T05:38:00",
            "2018-04-13T05:50:00",
            "2018-04-13T09:24:00",
            "2018-04-15T14:46:00",
            "2018-04-15T15:44:00",
            "2018-04-16T03:07:00",
            "2018-04-16T06:28:00",
            "2018-04-16T06:42:00",
            "2018-04-16T09:48:00",
            "2018-04-17T14:33:00",
            "2018-04-17T16:56:00",
            "2018-04-17T17:15:00",
            "2018-04-17T21:20:00",
            "2018-04-19T06:01:00",
            "2018-04-19T08:23:00",
            "2018-04-19T08:37:00",
            "2018-04-19T12:38:00",
            "2018-04-20T02:49:00",
            "2018-04-20T05:10:00",
            "2018-04-20T05:21:00",
            "2018-04-20T09:22:00",
            "2018-04-23T17:29:00",
            "2018-04-23T20:40:00",
            "2018-04-23T20:53:00",
            "2018-04-24T00:12:00",
            "2018-04-24T12:56:00",
            "2018-04-24T16:44:00",
            "2018-04-24T17:01:00",
            "2018-04-24T19:46:00",
            "2018-04-25T07:00:00",
            "2018-04-25T09:57:00",
            "2018-04-25T10:17:00",
            "2018-04-25T13:37:00",
            "2018-04-26T12:48:00",
            "2018-04-26T14:35:00",
            "2018-04-26T14:45:00",
            "2018-04-26T15:48:00",
            "2018-04-26T16:01:00",
            "2018-04-26T16:40:00",
            "2018-04-27T03:20:00",
            "2018-04-27T05:42:00",
            "2018-04-27T05:56:00",
            "2018-04-27T09:58:00",
            "2018-04-30T03:52:00",
            "2018-04-30T07:02:00",
            "2018-04-30T07:18:00",
            "2018-04-30T08:49:00",
            "2018-04-30T09:09:00",
            "2018-04-30T09:44:00",
            "2018-05-01T14:40:00",
            "2018-05-01T16:51:00",
            "2018-05-01T17:07:00",
            "2018-05-01T21:12:00",
            "2018-05-02T16:27:00",
            "2018-05-02T21:03:00",
            "2018-05-02T21:19:00",
            "2018-05-02T23:17:00",
            "2018-05-04T12:20:00",
            "2018-05-04T14:58:00",
            "2018-05-04T14:52:00",
            "2018-05-04T18:30:00"
         ]
      },
      {
         "workload":{
            "workload_in_minutes":450,
            "minimum_rest_interval_in_minutes":15,
            "days":[
               "mon",
               "tue",
               "wed",
               "thu",
               "fri"
            ]
         },
         "pis_number":"56248438595",
         "name":"Goddard Sherwood Jr",
         "entries":[
            "2018-04-12T14:28:00",
            "2018-04-12T19:44:00",
            "2018-04-12T20:01:00",
            "2018-04-12T22:29:00",
            "2018-04-13T03:41:00",
            "2018-04-13T07:07:00",
            "2018-04-13T07:26:00",
            "2018-04-13T11:19:00",
            "2018-04-16T03:28:00",
            "2018-04-16T07:06:00",
            "2018-04-16T07:24:00",
            "2018-04-16T11:20:00",
            "2018-04-17T00:50:00",
            "2018-04-17T04:24:00",
            "2018-04-17T04:39:00",
            "2018-04-17T08:21:00",
            "2018-04-18T03:37:00",
            "2018-04-18T09:24:00",
            "2018-04-18T09:38:00",
            "2018-04-18T11:15:00",
            "2018-04-19T02:49:00",
            "2018-04-19T08:17:00",
            "2018-04-19T08:27:00",
            "2018-04-19T10:34:00",
            "2018-04-23T11:05:00",
            "2018-04-23T13:31:00",
            "2018-04-23T13:42:00",
            "2018-04-23T18:40:00",
            "2018-04-25T15:22:00",
            "2018-04-25T17:35:00",
            "2018-04-25T17:46:00",
            "2018-04-25T18:51:00",
            "2018-04-25T19:11:00",
            "2018-04-25T20:00:00",
            "2018-04-26T02:00:00",
            "2018-04-26T04:24:00",
            "2018-04-26T04:43:00",
            "2018-04-26T09:36:00",
            "2018-04-27T14:35:00",
            "2018-04-27T18:02:00",
            "2018-04-27T18:19:00",
            "2018-04-27T22:32:00",
            "2018-04-29T05:23:00",
            "2018-04-29T05:53:00",
            "2018-04-29T05:55:00",
            "2018-04-29T06:18:00",
            "2018-04-30T15:56:00",
            "2018-04-30T20:53:00",
            "2018-04-30T21:09:00",
            "2018-04-30T23:49:00",
            "2018-05-01T06:39:00",
            "2018-05-01T11:47:00",
            "2018-05-01T12:04:00",
            "2018-05-01T14:29:00",
            "2018-05-02T00:25:00",
            "2018-05-02T03:06:00",
            "2018-05-02T02:50:00",
            "2018-05-02T07:37:00",
            "2018-05-03T03:40:00",
            "2018-05-03T08:24:00",
            "2018-05-03T08:42:00",
            "2018-05-03T11:28:00",
            "2018-05-04T15:24:00",
            "2018-05-04T19:49:00",
            "2018-05-04T20:05:00",
            "2018-05-04T22:55:00"
         ]
      }
   ]
}
